R数据科学学习笔记
…
showtext_auto()

2. 使用dplyr包进行数据操作

filter 行操作

On-time data for all flights that departed NYC (i.e. JFK, LGA or EWR) in 2013.

Code

library(tidyverse)
library(nycflights13)
flights

# A tibble: 336,776 × 19
    year month   day dep_time sched_dep_time dep_delay arr_time sched_arr_time
   <int> <int> <int>    <int>          <int>     <dbl>    <int>          <int>
 1  2013     1     1      517            515         2      830            819
 2  2013     1     1      533            529         4      850            830
 3  2013     1     1      542            540         2      923            850
 4  2013     1     1      544            545        -1     1004           1022
 5  2013     1     1      554            600        -6      812            837
 6  2013     1     1      554            558        -4      740            728
 7  2013     1     1      555            600        -5      913            854
 8  2013     1     1      557            600        -3      709            723
 9  2013     1     1      557            600        -3      838            846
10  2013     1     1      558            600        -2      753            745
# ℹ 336,766 more rows
# ℹ 11 more variables: arr_delay <dbl>, carrier <chr>, flight <int>,
#   tailnum <chr>, origin <chr>, dest <chr>, air_time <dbl>, distance <dbl>,
#   hour <dbl>, minute <dbl>, time_hour <dttm>
…
Code

# 过滤出2013年1月份从JFK机场出发的航班
jan_flights_jfk <- flights |>
  filter(month == 1, year == 2013, origin == "JFK")

filter(flights, month == 1 | month == 12)

# A tibble: 55,139 × 19
    year month   day dep_time sched_dep_time dep_delay arr_time sched_arr_time
   <int> <int> <int>    <int>          <int>     <dbl>    <int>          <int>
 1  2013     1     1      517            515         2      830            819
 2  2013     1     1      533            529         4      850            830
 3  2013     1     1      542            540         2      923            850
 4  2013     1     1      544            545        -1     1004           1022
 5  2013     1     1      554            600        -6      812            837
 6  2013     1     1      554            558        -4      740            728
 7  2013     1     1      555            600        -5      913            854
 8  2013     1     1      557            600        -3      709            723
 9  2013     1     1      557            600        -3      838            846
10  2013     1     1      558            600        -2      753            745
# ℹ 55,129 more rows
# ℹ 11 more variables: arr_delay <dbl>, carrier <chr>, flight <int>,
#   tailnum <chr>, origin <chr>, dest <chr>, air_time <dbl>, distance <dbl>,
#   hour <dbl>, minute <dbl>, time_hour <dttm>

Code

filter(flights, carrier %in% c("AA", "DL", "UA"))

# A tibble: 139,504 × 19
    year month   day dep_time sched_dep_time dep_delay arr_time sched_arr_time
   <int> <int> <int>    <int>          <int>     <dbl>    <int>          <int>
 1  2013     1     1      517            515         2      830            819
 2  2013     1     1      533            529         4      850            830
 3  2013     1     1      542            540         2      923            850
 4  2013     1     1      554            600        -6      812            837
 5  2013     1     1      554            558        -4      740            728
 6  2013     1     1      558            600        -2      753            745
 7  2013     1     1      558            600        -2      924            917
 8  2013     1     1      558            600        -2      923            937
 9  2013     1     1      559            600        -1      941            910
10  2013     1     1      559            600        -1      854            902
# ℹ 139,494 more rows
# ℹ 11 more variables: arr_delay <dbl>, carrier <chr>, flight <int>,
#   tailnum <chr>, origin <chr>, dest <chr>, air_time <dbl>, distance <dbl>,
#   hour <dbl>, minute <dbl>, time_hour <dttm>

Code

filter(flights, is.na(dep_time))

# A tibble: 8,255 × 19
    year month   day dep_time sched_dep_time dep_delay arr_time sched_arr_time
   <int> <int> <int>    <int>          <int>     <dbl>    <int>          <int>
 1  2013     1     1       NA           1630        NA       NA           1815
 2  2013     1     1       NA           1935        NA       NA           2240
 3  2013     1     1       NA           1500        NA       NA           1825
 4  2013     1     1       NA            600        NA       NA            901
 5  2013     1     2       NA           1540        NA       NA           1747
 6  2013     1     2       NA           1620        NA       NA           1746
 7  2013     1     2       NA           1355        NA       NA           1459
 8  2013     1     2       NA           1420        NA       NA           1644
 9  2013     1     2       NA           1321        NA       NA           1536
10  2013     1     2       NA           1545        NA       NA           1910
# ℹ 8,245 more rows
# ℹ 11 more variables: arr_delay <dbl>, carrier <chr>, flight <int>,
#   tailnum <chr>, origin <chr>, dest <chr>, air_time <dbl>, distance <dbl>,
#   hour <dbl>, minute <dbl>, time_hour <dttm>

Code

filter(flights, !(arr_delay > 120 | dep_delay > 120))

# A tibble: 316,050 × 19
    year month   day dep_time sched_dep_time dep_delay arr_time sched_arr_time
   <int> <int> <int>    <int>          <int>     <dbl>    <int>          <int>
 1  2013     1     1      517            515         2      830            819
 2  2013     1     1      533            529         4      850            830
 3  2013     1     1      542            540         2      923            850
 4  2013     1     1      544            545        -1     1004           1022
 5  2013     1     1      554            600        -6      812            837
 6  2013     1     1      554            558        -4      740            728
 7  2013     1     1      555            600        -5      913            854
 8  2013     1     1      557            600        -3      709            723
 9  2013     1     1      557            600        -3      838            846
10  2013     1     1      558            600        -2      753            745
# ℹ 316,040 more rows
# ℹ 11 more variables: arr_delay <dbl>, carrier <chr>, flight <int>,
#   tailnum <chr>, origin <chr>, dest <chr>, air_time <dbl>, distance <dbl>,
#   hour <dbl>, minute <dbl>, time_hour <dttm>

arrange 行排序

Code

arrange(flights, year, month, day)

# A tibble: 336,776 × 19
    year month   day dep_time sched_dep_time dep_delay arr_time sched_arr_time
   <int> <int> <int>    <int>          <int>     <dbl>    <int>          <int>
 1  2013     1     1      517            515         2      830            819
 2  2013     1     1      533            529         4      850            830
 3  2013     1     1      542            540         2      923            850
 4  2013     1     1      544            545        -1     1004           1022
 5  2013     1     1      554            600        -6      812            837
 6  2013     1     1      554            558        -4      740            728
 7  2013     1     1      555            600        -5      913            854
 8  2013     1     1      557            600        -3      709            723
 9  2013     1     1      557            600        -3      838            846
10  2013     1     1      558            600        -2      753            745
# ℹ 336,766 more rows
# ℹ 11 more variables: arr_delay <dbl>, carrier <chr>, flight <int>,
#   tailnum <chr>, origin <chr>, dest <chr>, air_time <dbl>, distance <dbl>,
#   hour <dbl>, minute <dbl>, time_hour <dttm>

Code

arrange(flights, desc(arr_delay))

# A tibble: 336,776 × 19
    year month   day dep_time sched_dep_time dep_delay arr_time sched_arr_time
   <int> <int> <int>    <int>          <int>     <dbl>    <int>          <int>
 1  2013     1     9      641            900      1301     1242           1530
 2  2013     6    15     1432           1935      1137     1607           2120
 3  2013     1    10     1121           1635      1126     1239           1810
 4  2013     9    20     1139           1845      1014     1457           2210
 5  2013     7    22      845           1600      1005     1044           1815
 6  2013     4    10     1100           1900       960     1342           2211
 7  2013     3    17     2321            810       911      135           1020
 8  2013     7    22     2257            759       898      121           1026
 9  2013    12     5      756           1700       896     1058           2020
10  2013     5     3     1133           2055       878     1250           2215
# ℹ 336,766 more rows
# ℹ 11 more variables: arr_delay <dbl>, carrier <chr>, flight <int>,
#   tailnum <chr>, origin <chr>, dest <chr>, air_time <dbl>, distance <dbl>,
#   hour <dbl>, minute <dbl>, time_hour <dttm>

select 列选择

Code

select(flights, year, month, day)

# A tibble: 336,776 × 3
    year month   day
   <int> <int> <int>
 1  2013     1     1
 2  2013     1     1
 3  2013     1     1
 4  2013     1     1
 5  2013     1     1
 6  2013     1     1
 7  2013     1     1
 8  2013     1     1
 9  2013     1     1
10  2013     1     1
# ℹ 336,766 more rows

Code

select(flights, year:day)

# A tibble: 336,776 × 3
    year month   day
   <int> <int> <int>
 1  2013     1     1
 2  2013     1     1
 3  2013     1     1
 4  2013     1     1
 5  2013     1     1
 6  2013     1     1
 7  2013     1     1
 8  2013     1     1
 9  2013     1     1
10  2013     1     1
# ℹ 336,766 more rows

Code

select(flights, starts_with("dep"))

# A tibble: 336,776 × 2
   dep_time dep_delay
      <int>     <dbl>
 1      517         2
 2      533         4
 3      542         2
 4      544        -1
 5      554        -6
 6      554        -4
 7      555        -5
 8      557        -3
 9      557        -3
10      558        -2
# ℹ 336,766 more rows

Code

select(flights, ends_with("time"))

# A tibble: 336,776 × 5
   dep_time sched_dep_time arr_time sched_arr_time air_time
      <int>          <int>    <int>          <int>    <dbl>
 1      517            515      830            819      227
 2      533            529      850            830      227
 3      542            540      923            850      160
 4      544            545     1004           1022      183
 5      554            600      812            837      116
 6      554            558      740            728      150
 7      555            600      913            854      158
 8      557            600      709            723       53
 9      557            600      838            846      140
10      558            600      753            745      138
# ℹ 336,766 more rows

Code

select(flights, contains("delay"))

# A tibble: 336,776 × 2
   dep_delay arr_delay
       <dbl>     <dbl>
 1         2        11
 2         4        20
 3         2        33
 4        -1       -18
 5        -6       -25
 6        -4        12
 7        -5        19
 8        -3       -14
 9        -3        -8
10        -2         8
# ℹ 336,766 more rows

Code

select(flights, matches("^(dep|arr)_(delay|time)$")) # 正则表达式

# A tibble: 336,776 × 4
   dep_time dep_delay arr_time arr_delay
      <int>     <dbl>    <int>     <dbl>
 1      517         2      830        11
 2      533         4      850        20
 3      542         2      923        33
 4      544        -1     1004       -18
 5      554        -6      812       -25
 6      554        -4      740        12
 7      555        -5      913        19
 8      557        -3      709       -14
 9      557        -3      838        -8
10      558        -2      753         8
# ℹ 336,766 more rows

Code

select(flights, num_range("x", 1:3)) # 选择列名为 x1, x2, x3 的列

# A tibble: 336,776 × 0

Code

rename(flights, departure_time = dep_time, arrival_time = arr_time)

# A tibble: 336,776 × 19
    year month   day departure_time sched_dep_time dep_delay arrival_time
   <int> <int> <int>          <int>          <int>     <dbl>        <int>
 1  2013     1     1            517            515         2          830
 2  2013     1     1            533            529         4          850
 3  2013     1     1            542            540         2          923
 4  2013     1     1            544            545        -1         1004
 5  2013     1     1            554            600        -6          812
 6  2013     1     1            554            558        -4          740
 7  2013     1     1            555            600        -5          913
 8  2013     1     1            557            600        -3          709
 9  2013     1     1            557            600        -3          838
10  2013     1     1            558            600        -2          753
# ℹ 336,766 more rows
# ℹ 12 more variables: sched_arr_time <int>, arr_delay <dbl>, carrier <chr>,
#   flight <int>, tailnum <chr>, origin <chr>, dest <chr>, air_time <dbl>,
#   distance <dbl>, hour <dbl>, minute <dbl>, time_hour <dttm>

Code

select(flights, flight, tailnum, everything())

# A tibble: 336,776 × 19
   flight tailnum  year month   day dep_time sched_dep_time dep_delay arr_time
    <int> <chr>   <int> <int> <int>    <int>          <int>     <dbl>    <int>
 1   1545 N14228   2013     1     1      517            515         2      830
 2   1714 N24211   2013     1     1      533            529         4      850
 3   1141 N619AA   2013     1     1      542            540         2      923
 4    725 N804JB   2013     1     1      544            545        -1     1004
 5    461 N668DN   2013     1     1      554            600        -6      812
 6   1696 N39463   2013     1     1      554            558        -4      740
 7    507 N516JB   2013     1     1      555            600        -5      913
 8   5708 N829AS   2013     1     1      557            600        -3      709
 9     79 N593JB   2013     1     1      557            600        -3      838
10    301 N3ALAA   2013     1     1      558            600        -2      753
# ℹ 336,766 more rows
# ℹ 10 more variables: sched_arr_time <int>, arr_delay <dbl>, carrier <chr>,
#   origin <chr>, dest <chr>, air_time <dbl>, distance <dbl>, hour <dbl>,
#   minute <dbl>, time_hour <dttm>

Code

select(flights, -c(year, month, day))

# A tibble: 336,776 × 16
   dep_time sched_dep_time dep_delay arr_time sched_arr_time arr_delay carrier
      <int>          <int>     <dbl>    <int>          <int>     <dbl> <chr>  
 1      517            515         2      830            819        11 UA     
 2      533            529         4      850            830        20 UA     
 3      542            540         2      923            850        33 AA     
 4      544            545        -1     1004           1022       -18 B6     
 5      554            600        -6      812            837       -25 DL     
 6      554            558        -4      740            728        12 UA     
 7      555            600        -5      913            854        19 B6     
 8      557            600        -3      709            723       -14 EV     
 9      557            600        -3      838            846        -8 B6     
10      558            600        -2      753            745         8 AA     
# ℹ 336,766 more rows
# ℹ 9 more variables: flight <int>, tailnum <chr>, origin <chr>, dest <chr>,
#   air_time <dbl>, distance <dbl>, hour <dbl>, minute <dbl>, time_hour <dttm>
…
flights_sml <- select(
  flights,
  year:day,
  ends_with("delay"),
  distance,
  air_time
) |>
  mutate(
    gain = arr_delay - dep_delay,
    speed = distance / air_time * 60,
    .keep = 'used'
  )
flights_sml

# A tibble: 336,776 × 6
   dep_delay arr_delay distance air_time  gain speed
       <dbl>     <dbl>    <dbl>    <dbl> <dbl> <dbl>
 1         2        11     1400      227     9  370.
 2         4        20     1416      227    16  374.
 3         2        33     1089      160    31  408.
 4        -1       -18     1576      183   -17  517.
 5        -6       -25      762      116   -19  394.
 6        -4        12      719      150    16  288.
 7        -5        19     1065      158    24  404.
 8        -3       -14      229       53   -11  259.
 9        -3        -8      944      140    -5  405.
10        -2         8      733      138    10  319.
# ℹ 336,766 more rows

Code

transmute(
  flights,
  gain = arr_delay - dep_delay,
  hours = air_time / 60,
  gain_per_hour = gain / hours
)

# A tibble: 336,776 × 3
    gain hours gain_per_hour
   <dbl> <dbl>         <dbl>
 1     9 3.78           2.38
 2    16 3.78           4.23
 3    31 2.67          11.6 
 4   -17 3.05          -5.57
 5   -19 1.93          -9.83
 6    16 2.5            6.4 
 7    24 2.63           9.11
 8   -11 0.883        -12.5 
 9    -5 2.33          -2.14
10    10 2.3            4.35
# ℹ 336,766 more rows
…
mpg |>
  mutate(across(
    where(is.character),
    as.factor
  )) |>
  mutate(
    size = case_when(
      displ < 2 ~ "small",
      displ >= 2 & displ < 4 ~ "medium",
      displ >= 4 ~ "large"
    )
  )

# A tibble: 234 × 12
   manufacturer model      displ  year   cyl trans drv     cty   hwy fl    class
   <fct>        <fct>      <dbl> <int> <int> <fct> <fct> <int> <int> <fct> <fct>
 1 audi         a4           1.8  1999     4 auto… f        18    29 p     comp…
 2 audi         a4           1.8  1999     4 manu… f        21    29 p     comp…
 3 audi         a4           2    2008     4 manu… f        20    31 p     comp…
 4 audi         a4           2    2008     4 auto… f        21    30 p     comp…
 5 audi         a4           2.8  1999     6 auto… f        16    26 p     comp…
 6 audi         a4           2.8  1999     6 manu… f        18    26 p     comp…
 7 audi         a4           3.1  2008     6 auto… f        18    27 p     comp…
 8 audi         a4 quattro   1.8  1999     4 manu… 4        18    26 p     comp…
 9 audi         a4 quattro   1.8  1999     4 auto… 4        16    25 p     comp…
10 audi         a4 quattro   2    2008     4 manu… 4        20    28 p     comp…
# ℹ 224 more rows
# ℹ 1 more variable: size <chr>
…
data Analysis

Code

library(tidyverse)
library(gapminder)

test <- gapminder |>
  mutate(year = as_factor(year)) |>
  filter(continent %in% c('Africa', 'Asia')) |>
  select(continent, year, lifeExp)
test

# A tibble: 1,020 × 3
   continent year  lifeExp
   <fct>     <fct>   <dbl>
 1 Asia      1952     28.8
 2 Asia      1957     30.3
 3 Asia      1962     32.0
 4 Asia      1967     34.0
 5 Asia      1972     36.1
 6 Asia      1977     38.4
 7 Asia      1982     39.9
 8 Asia      1987     40.8
 9 Asia      1992     41.7
10 Asia      1997     41.8
# ℹ 1,010 more rows
…
