R for Excel user
…
     type              visitors            year     
 Length:789         Min.   :    300   Min.   :1904  
 Class :character   1st Qu.: 111385   1st Qu.:1946  
 Mode  :character   Median : 393219   Median :1973  
                    Mean   : 607632   Mean   :1970  
                    3rd Qu.: 797800   3rd Qu.:1995  
                    Max.   :5028868   Max.   :2016  

ci_np <- read_excel(here("data", "ci_np.xlsx"))
ci_np

# A tibble: 54 × 7
   region state code  park_name                     type          visitors  year
   <chr>  <chr> <chr> <chr>                         <chr>            <dbl> <dbl>
 1 PW     CA    CHIS  Channel Islands National Park National Park     1200  1963
 2 PW     CA    CHIS  Channel Islands National Park National Park     1500  1964
 3 PW     CA    CHIS  Channel Islands National Park National Park     1600  1965
 4 PW     CA    CHIS  Channel Islands National Park National Park      300  1966
 5 PW     CA    CHIS  Channel Islands National Park National Park    15700  1967
 6 PW     CA    CHIS  Channel Islands National Park National Park    31000  1968
 7 PW     CA    CHIS  Channel Islands National Park National Park    33100  1969
 8 PW     CA    CHIS  Channel Islands National Park National Park    32000  1970
 9 PW     CA    CHIS  Channel Islands National Park National Park    24400  1971
10 PW     CA    CHIS  Channel Islands National Park National Park    31947  1972
# ℹ 44 more rows
…
lobsters %>%
  count(site, year)

# A tibble: 25 × 3
   site   year     n
   <chr> <dbl> <int>
 1 aque   2012    38
 2 aque   2013    32
 3 aque   2014   100
 4 aque   2015    83
 5 aque   2016    48
 6 carp   2012    78
 7 carp   2013    93
 8 carp   2014    79
 9 carp   2015    90
10 carp   2016   231
# ℹ 15 more rows

## This is the same as:
lobsters %>%
  group_by(site, year) %>%
  summarize(n = n()) %>%
  ungroup()

`summarise()` has grouped output by 'site'. You can override using the
`.groups` argument.

# A tibble: 25 × 3
   site   year     n
   <chr> <dbl> <int>
 1 aque   2012    38
 2 aque   2013    32
 3 aque   2014   100
 4 aque   2015    83
 5 aque   2016    48
 6 carp   2012    78
 7 carp   2013    93
 8 carp   2014    79
 9 carp   2015    90
10 carp   2016   231
# ℹ 15 more rows
…
